Wrangling and Preparing PIT Tag Data using PITcleanr
…
]

.pull-right[

```r
flowlines |> 
  st_drop_geometry() |> 
  select(COMID,
         Hydroseq,
         UpHydroseq,
         DnHydroseq)
```

```
## # A tibble: 386 x 4
##       COMID Hydroseq UpHydroseq DnHydroseq
##       <int>    <dbl>      <dbl>      <dbl>
##  1 23080784 50063945   50070238   50058967
##  2 23080786 50070238   50078399   50063945
##  3 23080788 50078399   50089588   50070238
##  4 23080790 50089588   50106483   50078399
##  5 23080792 50106483   50137781   50089588
##  6 23080794 50137781   50220575   50106483
##  7 23081176 50089577   50106469   50078388
##  8 23080910 50106479   50137746   50033323
##  9 23081092 50031394   50032319   50030525
## 10 23081090 50030525   50031394   50029716
## # i 376 more rows
```
…
comp_dir |> 
  select(tag_code,
         node,
         min_det,
         node_order,
         path,
         direction)
```

```
## # A tibble: 3,257 x 6
##    tag_code       node  min_det             node_order path        direction
##    <chr>          <chr> <dttm>                   <dbl> <chr>       <chr>    
##  1 384.3B239AC47B TUM   2018-06-16 15:26:31          1 TUM         start    
##  2 384.3B239AC47B UWE   2018-06-23 22:03:13          2 TUM UWE     forward  
##  3 384.3B239AC47B NAL   2018-07-01 00:06:16          3 TUM UWE NAL forward  
##  4 3DD.003B9DD720 TUM   2018-06-17 09:39:26          1 TUM         start    
##  5 3DD.003B9DD725 TUM   2018-06-19 09:33:08          1 TUM         start    
##  6 3DD.003B9DD725 CHU   2018-06-28 21:34:58          3 TUM CHL CHU forward  
##  7 3DD.003B9DDAB0 TUM   2018-07-17 11:51:44          1 TUM         start    
##  8 3DD.003B9F123C TUM   2018-06-21 09:45:14          1 TUM         start    
##  9 3DD.003B9F123C UWE   2018-07-01 12:55:31          2 TUM UWE     forward  
## 10 3DD.003BC7A654 TUM   2018-06-09 22:36:03          1 TUM         start    
## # i 3,247 more rows
```
…
# Filter Observations

```r
comp_filter <- filterDetections(compress_obs = comp_obs,
                                parent_child = parent_child,
                                max_obs_date = "20180930")

comp_filter |> 
  select(tag_code, node, min_det, direction,
         ends_with("keep_obs"))
```

```
## # A tibble: 3,257 x 6
##    tag_code      node  min_det             direction auto_keep_obs user_keep_obs
##    <chr>         <chr> <dttm>              <chr>     <lgl>         <lgl>        
##  1 384.3B239AC4~ TUM   2018-06-16 15:26:31 start     TRUE          TRUE         
##  2 384.3B239AC4~ UWE   2018-06-23 22:03:13 forward   TRUE          TRUE         
##  3 384.3B239AC4~ NAL   2018-07-01 00:06:16 forward   TRUE          TRUE         
##  4 3DD.003B9DD7~ TUM   2018-06-17 09:39:26 start     TRUE          TRUE         
##  5 3DD.003B9DD7~ TUM   2018-06-19 09:33:08 start     TRUE          TRUE         
##  6 3DD.003B9DD7~ CHU   2018-06-28 21:34:58 forward   TRUE          TRUE         
##  7 3DD.003B9DDA~ TUM   2018-07-17 11:51:44 start     TRUE          TRUE         
##  8 3DD.003B9F12~ TUM   2018-06-21 09:45:14 start     TRUE          TRUE         
##  9 3DD.003B9F12~ UWE   2018-07-01 12:55:31 forward   TRUE          TRUE         
## 10 3DD.003BC7A6~ TUM   2018-06-09 22:36:03 start     TRUE          TRUE         
## # i 3,247 more rows
```
…
---

# Capture Histories

```r
buildCapHist(comp_filter,
             parent_child = parent_child,
             configuration = my_config)
```

```
## # A tibble: 1,406 x 2
##    tag_code       cap_hist       
##    <chr>          <chr>          
##  1 384.3B239AC47B 100000000010100
##  2 3DD.003B9DD720 100000000000000
##  3 3DD.003B9DD725 101000000000000
##  4 3DD.003B9DDAB0 100000000000000
##  5 3DD.003B9F123C 100000000010000
##  6 3DD.003BC7A654 100000000010110
##  7 3DD.003BC7F0E3 100000000010110
##  8 3DD.003BC80A3C 100000000010100
##  9 3DD.003BC80D81 100000000010110
## 10 3DD.003BC80F20 100000000000100
## # i 1,396 more rows
```
…
